# Blender MTL File: 'Environment_pack.blend'
# Material Count: 1

newmtl Tree_m
Ns 43.137255
Ka 1.000000 1.000000 1.000000
Kd 0.800000 0.800000 0.800000
Ks 1.000000 1.000000 1.000000
Ke 0.000000 0.000000 0.000000
Ni 1.000000
d 1.000000
illum 2
map_Kd C:\Users\Jonathan\Downloads\Blender\Environment_pack\Environment_pack\color_g.png
